{
  "$schema": "http://json-schema.org/draft-04/schema#",
  "title": "DFTBTestSuiteReferenceData",
  "type": "object",
  "properties": {
    "atomic_data": {
      "oneOf": [
        {
          "type": "array",
          "items": {
            "type": "object",
            "properties": {
              "energy": {
                "type": "number"
              },
              "element": {
                "type": "string",
                "pattern": "^[A-Z][a-z]?$"
              },
              "method": {
                "type": "string"
              },
              "basis_set": {
                "type": [
                  "string",
                  "null"
                ]
              }
            },
            "additionalProperties": false
          }
        },
        {
          "type": "null"
        }
      ]
    },
    "timestamp": {
      "type": "string"
    },
    "molecular_data": {
      "oneOf": [
        {
          "type": "array",
          "items": {
            "type": "object",
            "properties": {
              "charge": {
                "type": "integer",
                "default": 0
              },
              "name": {
                "type": "string"
              },
              "uuid": {
                "type": "string",
                "pattern": "^{[0-9a-f]{8}-[0-9a-f]{4}-[0-9a-f]{4}-[0-9a-f]{4}-[0-9a-f]{12}}$"
              },
              "frequency_data": {},
              "total_energy": {},
              "atomization_energy": {},
              "geometry": {}
            },
            "required": [
              "uuid",
              "name"
            ],
            "additionalProperties": false
          }
        },
        {
          "type": "null"
        }
      ]
    }
  },
  "additionalProperties": false
}
